{
    "name": "Vehicles",
    "namespace": "Botble\\Vehicles\\",
    "provider": "Botble\\Vehicles\\Providers\\VehiclesServiceProvider",
    "author": "Sang Nguyen",
    "url": "https://sangnguyen.info",
    "version": "1.0",
    "description": "The description for plugin vehicles"
}
